<?xml version="1.0" encoding="UTF-8"?>
<svg width="68px" height="80px" viewBox="0 0 68 80" version="1.1" xmlns="http://www.w3.org/2000/svg" xmlns:xlink="http://www.w3.org/1999/xlink">
    <!-- Generator: Sketch 48.2 (47327) - http://www.bohemiancoding.com/sketch -->
    <title>Group 2</title>
    <desc>Created with Sketch.</desc>
    <defs></defs>
    <g id="radish-icon" stroke="none" stroke-width="1" fill="none" fill-rule="evenodd" opacity="0.659999967">
        <g id="Group-2" transform="translate(0.081269, 0.511554)">
            <path d="M21.212606,38.2164885 C17.8440416,38.2164885 14.6365174,39.2348609 12.0426065,41.1517384 C9.12130239,43.3103424 7.33558137,46.3581545 7.01416487,49.7340239 C6.55428692,54.5632404 9.1777495,59.2280963 13.8602035,61.9076739 C15.9467545,63.1013643 17.6896421,64.6280927 19.0407204,66.4456898 L19.1854906,66.6405983 C19.5859331,67.1795022 19.8841066,67.7702047 20.0796793,68.3861423 C21.9759702,66.0054023 24.5602519,64.1552651 27.5811686,63.0206782 C32.4392727,61.1961082 35.7327958,57.1687728 36.1760716,52.5105578 C36.4974881,49.1350204 35.3190716,45.8049728 32.8576455,43.1336962 C30.3274866,40.3877101 26.7616893,38.6687295 22.8167002,38.2928582 C22.2794565,38.2417237 21.743873,38.2164885 21.212606,38.2164885 M12.3328111,79.2644971 C9.70104745,79.2644971 7.21770651,78.6070542 5.51732025,77.8689252 C4.332927,77.3552565 3.73790802,76.0211124 4.14665152,74.7965421 C4.55473095,73.5719718 5.83209591,72.8623983 7.08754611,73.1625642 C10.7735426,74.0441353 13.506579,73.2256521 15.2116138,70.7310218 C15.443047,70.392007 15.4334178,69.9417583 15.1870427,69.6100485 L15.0422725,69.4151399 C14.1042543,68.1533809 12.8740393,67.0815499 11.3868239,66.2305266 C4.98372901,62.5661129 1.40830246,56.0640695 2.05644813,49.2618604 C2.51333771,44.4595392 5.00863214,40.156609 9.08278554,37.1459856 C13.0745926,34.1961259 18.1216285,32.8430554 23.2888637,33.3348094 C28.457759,33.8268954 33.1571472,36.1083549 36.520731,39.7588229 C39.9530476,43.4840003 41.591674,48.1804001 41.1341204,52.9827213 C40.5088856,59.5508409 35.9868078,65.1839308 29.3320252,67.6835417 C27.053222,68.5392136 25.1366765,69.9381058 23.7902469,71.7288075 C23.3253883,72.3467374 23.0939551,72.7392108 22.9813929,72.9596866 C20.5116657,77.8011887 16.2575456,79.2644971 12.3328111,79.2644971" id="Fill-1" fill="#E52F58"></path>
            <path d="M5.59206286,6.87698498 C5.92842125,10.7333189 7.14767889,17.8220802 11.5508857,21.1923049 C13.9864127,23.0560557 17.1016292,23.5395087 21.0466183,22.6562774 C22.0111999,18.7315428 21.5928272,15.606365 19.7802107,13.1326533 C16.5026257,8.66004967 9.4404278,7.29336545 5.59206286,6.87698498 M17.4718559,28.0602583 C14.0478404,28.0602583 11.0485064,27.0840553 8.51037861,25.136962 C0.331191931,18.8620352 0.474966048,4.76021824 0.484927303,4.16287497 C0.50783819,2.80349567 1.6165259,1.71473048 2.97457703,1.71473048 L2.98453828,1.71473048 C3.58188156,1.71672273 17.6840306,1.86713768 23.7876237,10.1748246 C26.7627186,14.2244068 27.3182246,19.3624223 25.4385358,25.4460929 C25.1898364,26.2496342 24.5529802,26.8738728 23.7444583,27.105306 C21.5197779,27.7421622 19.4265862,28.0602583 17.4718559,28.0602583" id="Fill-4" fill="#57B14C"></path>
            <path d="M24.661425,38.2508881 C23.3478675,38.2508881 22.248809,37.2228865 22.177088,35.8953833 C21.6700601,26.5364519 20.8831209,24.0517828 13.6917587,18.998106 C12.5664689,18.2075144 12.2955228,16.6542226 13.0861144,15.5289328 C13.876706,14.4039751 15.4299978,14.1320328 16.5556196,14.9232885 C25.5971189,21.2769091 26.597229,25.4164748 27.1504107,35.6257653 C27.224788,36.9990903 26.1718834,38.1728582 24.7982263,38.2472356 C24.7524045,38.2498919 24.7069148,38.2508881 24.661425,38.2508881" id="Fill-7" fill="#83AD38"></path>
            <path d="M35.3030008,20.5527923 C39.915394,22.9557791 44.0758783,23.391418 47.6858372,21.8457632 C52.2809642,19.8784153 55.4383501,15.0176548 57.2778619,11.2858366 C58.2902575,9.23182572 59.0204175,7.2993422 59.5028743,5.8566204 C54.9655225,5.14306249 45.4658054,4.36110395 39.8546304,8.97582146 C36.8250806,11.4671314 35.296692,15.3576657 35.3030008,20.5527923 M43.1946392,27.7491351 C39.5302255,27.7491351 35.6506486,26.5620855 31.5947575,24.1923029 C30.8689141,23.7679534 30.4057157,23.0059174 30.3642105,22.1658516 C29.9883391,14.6148881 32.1213759,8.87919729 36.7042174,5.11815935 C46.1830158,-2.66124895 62.5822303,1.34018728 63.2761978,1.51484129 C64.5980563,1.84655109 65.4072423,3.179035 65.0924666,4.50487807 C64.9274418,5.20083777 60.9193648,21.5983921 49.6458802,26.4242882 C47.5819081,27.3078515 45.4282847,27.7491351 43.1946392,27.7491351" id="Fill-9" fill="#57B14C"></path>
            <path d="M27.640106,37.06344 C27.3930669,37.06344 27.1420432,37.0265834 26.894008,36.9485536 C25.5817786,36.5368217 24.8516186,35.1392576 25.2633505,33.8270282 C29.2777363,21.0334561 35.441429,14.5048494 48.0065564,9.73739263 C49.2905622,9.25028725 50.7302956,9.89610863 51.2183971,11.1824387 C51.7061666,12.4684368 51.059017,13.9061779 49.773019,14.3942795 C38.5769001,18.6420907 33.5912919,23.921888 30.0155333,35.3178961 C29.6814992,36.3820902 28.6993195,37.06344 27.640106,37.06344" id="Fill-12" fill="#83AD38"></path>
            <path d="M47.6034576,33.9116325 C47.5563077,37.0776514 48.415964,39.4062609 50.2143026,41.0047103 C53.2591263,43.7115154 58.6853541,43.9153891 62.2780468,43.6069222 C61.1537531,40.1809145 58.8364331,35.2696836 55.1520968,33.5307805 C52.9768907,32.5037751 50.4975343,32.6262985 47.6034576,33.9116325 M59.7153478,48.6957955 C55.685024,48.6957955 50.5360511,47.9453809 46.9184553,44.7391849 C43.646515,41.8391314 42.2320167,37.5873357 42.7144735,32.1023365 C42.7881868,31.2645949 43.2799408,30.5204891 44.0213902,30.1240312 C48.8771701,27.5291242 53.3428008,27.162218 57.2944308,29.0342699 C65.334824,32.8437859 67.7597255,44.6946913 67.859006,45.1974026 C68.1233114,46.5342031 67.263655,47.835143 65.930507,48.1167145 C65.7013982,48.1648606 63.1035028,48.6957955 59.7153478,48.6957955" id="Fill-14" fill="#57B14C"></path>
            <path d="M53.2608197,39.9117282 C52.6375772,39.9117282 52.0136705,39.6792989 51.5302176,39.211784 C45.7616547,33.6351412 39.0471046,32.7452691 31.5459474,36.5517968 C30.3751678,37.1458196 28.9467238,36.7619793 28.2650419,35.640674 C27.5086506,34.3978413 27.9778257,32.7781412 29.2754453,32.1197023 C33.2118013,30.1221386 37.0857334,29.1592172 40.8142313,29.2548453 C45.9502545,29.3853377 50.6944683,31.5057569 54.9157162,35.5576635 C55.9407294,36.5415035 56.0078019,38.2389014 54.9817926,39.2217452 C54.5019921,39.6809591 53.8817379,39.9117282 53.2608197,39.9117282" id="Fill-17" fill="#83AD38"></path>
        </g>
    </g>
</svg>